      ___           ___     
     /\__\         /\  \       Michal Sapka (D-S)
    /::|  |       /::\  \      https://michal.sapka.pl
   /:|:|  |      /:/\ \  \  
  /:/|:|__|__   _\:\~\ \  \ 
 /:/ |::::\__\ /\ \:\ \ \__\
 \/__/~~/:/  / \:\ \:\ \/__/
       /:/  /   \:\ \:\__\  
      /:/  /     \:\/:/  /  
     /:/  /       \::/  /   
     \/__/         \/__/
