      ___           ___     
     /\__\         /\  \    
    /::|  |       /::\  \   
   /:|:|  |      /:/\ \  \  
  /:/|:|__|__   _\:\~\ \  \ 
 /:/ |::::\__\ /\ \:\ \ \__\
 \/__/~~/:/  / \:\ \:\ \/__/
       /:/  /   \:\ \:\__\  
      /:/  /     \:\/:/  /  
     /:/  /       \::/  /   
     \/__/         \/__/

      ___           ___     
     /\  \         /\__\    
    |::\  \       /:/ _/_   
    |:|:\  \     /:/ /\  \  
  __|:|\:\  \   /:/ /::\  \ 
 /::::|_\:\__\ /:/_/:/\:\__\
 \:\~~\  \/__/ \:\/:/ /:/  /
  \:\  \        \::/ /:/  / 
   \:\  \        \/_/:/  /  
    \:\__\         /:/  /   
     \/__/         \/__/    

      ___           ___     
     /__/\         /  /\    
    |  |::\       /  /:/_   
    |  |:|:\     /  /:/ /\  
  __|__|:|\:\   /  /:/ /::\ 
 /__/::::| \:\ /__/:/ /:/\:\
 \  \:\~~\__\/ \  \:\/:/~/:/
  \  \:\        \  \::/ /:/ 
   \  \:\        \__\/ /:/  
    \  \:\         /__/:/   
     \__\/         \__\/    

      ___           ___     
     /  /\         /  /\    
    /  /::|       /  /::\   
   /  /:|:|      /__/:/\:\  
  /  /:/|:|__   _\_ \:\ \:\ 
 /__/:/_|::::\ /__/\ \:\ \:\
 \__\/  /~~/:/ \  \:\ \:\_\/
       /  /:/   \  \:\_\:\  
      /  /:/     \  \:\/:/  
     /__/:/       \  \::/   
     \__\/         \__\/    

__/\\\\____________/\\\\_____/\\\\\\\\\\\___        
 _\/\\\\\\________/\\\\\\___/\\\/////////\\\_       
  _\/\\\//\\\____/\\\//\\\__\//\\\______\///__      
   _\/\\\\///\\\/\\\/_\/\\\___\////\\\_________     
    _\/\\\__\///\\\/___\/\\\______\////\\\______    
     _\/\\\____\///_____\/\\\_________\////\\\___   
      _\/\\\_____________\/\\\__/\\\______\//\\\__  
       _\/\\\_____________\/\\\_\///\\\\\\\\\\\/___ 
        _\///______________\///____\///////////_____
