      ___           ___     
     /  /\         /  /\    
    /  /::|       /  /::\   
   /  /:|:|      /__/:/\:\  
  /  /:/|:|__   _\_ \:\ \:\ 
 /__/:/_|::::\ /__/\ \:\ \:\
 \__\/  /~~/:/ \  \:\ \:\_\/
       /  /:/   \  \:\_\:\  
      /  /:/     \  \:\/:/  
     /__/:/       \  \::/   
     \__\/         \__\/    
